{
  "project_info": {
    "project_number": "680183228259",
    "project_id": "cmile-f3171",
    "storage_bucket": "cmile-f3171.appspot.com"
  },
  "client": [
    {
      "client_info": {
        "mobilesdk_app_id": "1:680183228259:android:8402d12e08808a70cfd556",
        "android_client_info": {
          "package_name": "com.developer.cmile_coding_assignment"
        }
      },
      "oauth_client": [
        {
          "client_id": "680183228259-b91fsvbleeciran4jpt752560a5ripkb.apps.googleusercontent.com",
          "client_type": 3
        }
      ],
      "api_key": [
        {
          "current_key": "AIzaSyCl37uRosfbrfNeWsVXRUmq6V8rteuiMtw"
        }
      ],
      "services": {
        "appinvite_service": {
          "other_platform_oauth_client": [
            {
              "client_id": "680183228259-b91fsvbleeciran4jpt752560a5ripkb.apps.googleusercontent.com",
              "client_type": 3
            },
            {
              "client_id": "680183228259-huv9nm46n22ga15efhs57iqd0uea7n5g.apps.googleusercontent.com",
              "client_type": 2,
              "ios_info": {
                "bundle_id": "com.developer.cmileCodingAssignment"
              }
            }
          ]
        }
      }
    }
  ],
  "configuration_version": "1"
}